<svg width="31" height="30" viewBox="0 0 31 30" fill="none" xmlns="http://www.w3.org/2000/svg">
<g clip-path="url(#clip0_75_920)">
<path fill-rule="evenodd" clip-rule="evenodd" d="M0.458008 13.1616C0.458008 13.3263 0.506523 13.4351 0.533711 13.5408C0.710898 14.2282 1.09176 14.8181 1.54363 15.3562C2.18723 16.1231 2.97543 16.7405 3.78285 17.321C4.48316 17.8245 5.19777 18.3166 5.9009 18.8163C6.0216 18.9021 6.13574 19.0008 6.26676 19.106C6.15402 19.167 6.06027 19.2206 5.96277 19.2701C5.03488 19.7407 4.14215 20.2683 3.31926 20.9074C2.82332 21.2927 2.34379 21.7022 2.00512 22.2373C1.4602 23.0979 1.2673 24.0148 1.67348 24.9937C1.79207 25.2797 1.97301 25.5267 2.22824 25.7093C2.31098 25.7684 2.40379 25.827 2.50059 25.8499C2.74855 25.9083 3.00121 25.9465 3.25223 25.9927L3.96309 25.9922C4.74918 25.9221 5.46473 25.6528 6.11137 25.2066C7.12199 24.5091 7.80285 23.5739 8.09559 22.3737C8.3084 21.5013 8.31707 20.628 8.06629 19.7597C8.04229 19.6792 8.0146 19.5999 7.98332 19.522C7.95285 19.444 7.91699 19.368 7.8748 19.2708L9.48637 18.3441L9.51051 18.3647C9.48121 18.4605 9.45004 18.5562 9.42355 18.653C9.23207 19.3523 9.1048 20.0639 9.15051 20.7898C9.19926 21.5632 9.41512 22.2872 9.86793 22.9334C10.234 23.456 11.1064 23.4755 11.4954 22.9509C11.6335 22.7646 11.7673 22.5698 11.8679 22.362C12.1306 21.8194 12.3739 21.2672 12.6249 20.7188L12.6687 20.6184C12.6507 20.8781 12.6296 21.1062 12.62 21.3345C12.605 21.6909 12.6258 22.0453 12.7477 22.3845C12.852 22.6746 13.0294 22.8914 13.3618 22.9296C13.5891 22.9556 13.7703 22.8516 13.9374 22.7196C14.1963 22.515 14.4109 22.2599 14.5681 21.9698C15.0136 21.1516 15.4711 20.3384 15.875 19.4995C16.3118 18.5923 16.6939 17.6585 17.0996 16.7358L17.1666 16.5722C17.2625 16.9488 17.3293 17.3177 17.4523 17.667C17.5953 18.0722 17.7722 18.4678 17.9649 18.8524C18.0561 19.0341 18.0455 19.152 17.9192 19.3043C17.3904 19.9418 16.8708 20.587 16.3507 21.2316C16.2357 21.3738 16.1211 21.5187 16.0252 21.6741C15.967 21.7722 15.9288 21.8808 15.9127 21.9937C15.8966 22.0977 15.9213 22.2039 15.9817 22.29C16.0422 22.3761 16.1336 22.4355 16.2368 22.4557C16.4452 22.5006 16.6589 22.5158 16.8715 22.5009C17.5974 22.4475 18.2564 22.1927 18.8391 21.761C19.594 21.2018 19.8364 20.4387 19.6536 19.5342C19.6041 19.2888 19.5167 19.0502 19.4316 18.8138C19.3934 18.7071 19.3908 18.6323 19.4604 18.533C20.0639 17.6712 20.5796 16.7569 21.0591 15.8215C21.0781 15.7847 21.0975 15.7479 21.1308 15.7085C21.2862 16.5171 21.5201 17.2964 21.9392 18.0035C21.7254 18.2095 21.5138 18.3963 21.3223 18.6021C20.9007 19.0554 20.535 19.5476 20.3443 20.1478C20.2622 20.4066 20.1992 20.6695 20.2357 20.9459C20.2925 21.375 20.644 21.6539 21.0661 21.5562C21.9694 21.3471 22.7492 20.9215 23.3189 20.1675C23.7024 19.6598 23.7373 19.0936 23.5768 18.5004C23.5327 18.3391 23.4804 18.1805 23.4242 17.9955C23.6471 17.9264 23.8643 17.8434 24.0891 17.7921C25.2561 17.5259 26.4104 17.5723 27.5349 17.9937C28.1914 18.2398 28.7218 18.6516 29.0363 19.2994C29.4204 20.0913 29.2081 20.8427 28.4616 21.3434C28.392 21.39 28.3123 21.4268 28.2546 21.4852C28.2362 21.5066 28.2224 21.5316 28.2141 21.5586C28.2058 21.5856 28.2033 21.6141 28.2066 21.6422C28.2115 21.671 28.2877 21.7071 28.3315 21.7066C28.5769 21.7048 28.7759 21.5761 28.9669 21.4439C29.4455 21.1127 29.7947 20.6672 29.87 20.0805L29.8847 20.0365L29.8667 19.6545C29.8594 19.6324 29.8721 19.6106 29.8704 19.594C29.7687 18.7397 29.3124 18.0771 28.6486 17.5577C27.8799 16.9566 26.9721 16.7091 26.0121 16.6699C25.2336 16.6364 24.456 16.7561 23.7235 17.0222C23.5132 17.0984 23.3049 17.1886 23.0935 17.2737C23.0651 17.2223 23.0346 17.1731 23.0096 17.1223C22.7925 16.6779 22.5296 16.2532 22.4714 15.7437C22.4302 15.3818 22.3796 15.0204 22.4656 14.6625C22.5483 14.3182 22.6561 13.9798 22.7576 13.6402C22.8099 13.4653 22.7731 13.3673 22.6062 13.2886C22.5481 13.2596 22.486 13.2392 22.422 13.2281C22.0118 13.1686 21.6073 13.2026 21.21 13.3181C21.0694 13.3591 20.9672 13.4379 20.9361 13.5935C20.9182 13.6828 20.8819 13.7684 20.8566 13.8565C20.7528 14.2228 20.6792 14.5962 20.5114 14.9452C20.0909 15.8205 19.6109 16.6629 19.1196 17.4991C19.0664 17.5894 19.0104 17.678 18.9434 17.7874C18.7709 17.4265 18.5869 17.1026 18.5311 16.7229C18.4681 16.2935 18.4184 15.8648 18.5253 15.4388C18.6047 15.1209 18.7086 14.809 18.8042 14.4954C18.8494 14.3463 18.8286 14.268 18.6936 14.1895C18.6254 14.1499 18.5482 14.1148 18.4714 14.1033C18.0508 14.0392 17.6211 14.0744 17.2165 14.2059C17.0893 14.2472 17.0225 14.3295 16.9836 14.4607C16.8692 14.8479 16.7717 15.2445 16.6111 15.6127C15.961 17.1033 15.2921 18.5862 14.6239 20.0688C14.4844 20.3784 14.3211 20.6773 14.1638 20.9787C14.1239 21.0551 14.0658 21.1223 14.0161 21.1941C13.9763 21.147 13.9608 21.1146 13.9611 21.0823C13.9622 20.8917 13.9395 20.6955 13.9758 20.5113C14.0874 19.9542 14.2107 19.3994 14.3457 18.8475C14.4558 18.3914 14.584 17.9395 14.7061 17.4865C14.7471 17.3348 14.7479 17.193 14.6389 17.0655C14.4558 16.852 14.0733 16.8052 13.8464 16.9697L13.7461 17.0264L13.7656 16.8647C13.8134 16.518 13.823 16.1726 13.7279 15.8311C13.6093 15.4055 13.3055 15.1605 12.8639 15.1741C12.6582 15.1805 12.4421 15.2156 12.2515 15.2906C11.4502 15.6047 10.834 16.1609 10.3095 16.83C10.2609 16.8921 10.2006 16.9442 10.1321 16.9833C9.45402 17.3592 8.77387 17.7305 8.09395 18.1031L7.33715 18.5177C7.13418 18.3241 6.94973 18.1233 6.74043 17.9529C6.10129 17.4316 5.45184 16.9233 4.80824 16.4079C4.23777 15.9511 3.68512 15.4753 3.2623 14.8704C2.94777 14.4204 2.74504 13.928 2.72559 13.3716C2.70098 12.6626 2.90207 12.0148 3.26301 11.4117C3.72473 10.6402 4.35449 10.0209 5.04684 9.46008C5.77926 8.86711 6.57145 8.36367 7.39246 7.90406C8.54113 7.26117 9.72262 6.69211 10.9894 6.31641C12.2883 5.93109 13.6062 5.71055 14.9656 5.8643C15.5 5.92477 16.0189 6.04711 16.4953 6.30844C16.8603 6.50836 17.1596 6.77016 17.2988 7.17937C17.4361 7.58203 17.4319 7.99008 17.3368 8.39906C17.1434 9.22734 16.6899 9.91008 16.1192 10.5202C15.1831 11.5202 14.0412 12.2011 12.7557 12.6509C12.0165 12.9098 11.2475 13.0738 10.467 13.1391C9.82738 13.1927 9.20113 13.136 8.59551 12.9136C8.19449 12.7662 7.84527 12.5407 7.56449 12.2135C7.51434 12.1549 7.45012 12.0914 7.3566 12.1463C7.26496 12.2002 7.24879 12.2873 7.27949 12.3757C7.33082 12.5224 7.37816 12.6752 7.45809 12.8065C7.65895 13.1358 7.95191 13.3746 8.27441 13.5795C8.89387 13.9734 9.58621 14.1059 10.3041 14.1366C11.3935 14.1837 12.4564 14.021 13.5043 13.7288C15.0003 13.3116 16.3011 12.5747 17.3443 11.4122C18.2129 10.4442 18.8332 9.3518 18.9661 8.03273C19.0311 7.38891 18.9619 6.7582 18.6605 6.17086C18.3336 5.53453 17.8137 5.06133 17.1921 4.73531C16.287 4.2607 15.3101 3.98438 14.3018 3.98438H13.2917C12.0706 3.98438 10.89 4.3343 9.74254 4.75172C8.87395 5.06789 8.02223 5.44102 7.19535 5.85398C5.39465 6.75375 3.7177 7.83867 2.34027 9.33047C1.65402 10.0737 1.07301 10.8937 0.738789 11.8594C0.637915 12.1477 0.551017 12.4407 0.478398 12.7373L0.458008 13.1616ZM7.00316 21.1779C6.92512 22.223 6.45145 23.0702 5.6773 23.7565C5.24184 24.1423 4.74238 24.417 4.16066 24.5135C3.94973 24.5484 3.73387 24.5569 3.52926 24.4695C3.23746 24.3448 3.17207 24.0858 3.16645 23.8099C3.15777 23.3702 3.31176 22.9727 3.52293 22.5945C3.79855 22.1013 4.20262 21.7254 4.6341 21.3743C5.31379 20.8209 6.05113 20.3527 6.80629 19.9106L6.86324 19.8872C6.97996 20.3184 7.03551 20.7443 7.00316 21.1779ZM12.8996 16.6359C12.8445 16.9697 12.7756 17.3037 12.6781 17.6271C12.3411 18.7467 11.9082 19.8316 11.4401 20.902C11.3536 21.1001 11.2278 21.2808 11.1183 21.4685C11.0997 21.4974 11.0774 21.5237 11.052 21.5468C10.9165 21.6806 10.7881 21.6736 10.7196 21.4985C10.64 21.2951 10.591 21.0773 10.5488 20.862C10.5204 20.7173 10.5272 20.5655 10.5183 20.4173C10.5275 19.3641 10.8488 18.4069 11.3939 17.5158C11.6187 17.1483 11.8634 16.7981 12.2372 16.5656C12.3535 16.4933 12.4793 16.4376 12.6111 16.4002C12.8103 16.3441 12.9326 16.4363 12.8996 16.6359ZM16.9224 21.7612L18.3682 20.073C18.4285 20.7 17.3628 21.9516 16.9224 21.7612ZM21.5403 20.6252C21.4381 20.6838 21.3268 20.726 21.222 20.7802C21.1261 20.8298 21.0945 20.7797 21.0917 20.6972C21.0903 20.6401 21.0976 20.5831 21.1135 20.5282C21.3087 19.8396 21.668 19.2518 22.2026 18.7737L22.2401 18.7545C22.4944 19.4658 22.2005 20.247 21.5403 20.6252Z" fill="#CB6699"/>
</g>
<defs>
<clipPath id="clip0_75_920">
<rect width="30" height="30" fill="white" transform="translate(0.172363)"/>
</clipPath>
</defs>
</svg>
